<?xml version="1.0" encoding="UTF-8" standalone="no"?>
<svg width="42px" height="26px" viewBox="0 0 42 26" version="1.1" xmlns="http://www.w3.org/2000/svg" xmlns:xlink="http://www.w3.org/1999/xlink" xmlns:sketch="http://www.bohemiancoding.com/sketch/ns">
    <!-- Generator: Sketch 3.4.4 (17249) - http://www.bohemiancoding.com/sketch -->
    <title>Card - Discover</title>
    <desc>Created with Sketch.</desc>
    <defs></defs>
    <g id="Large-Embed" stroke="none" stroke-width="1" fill="none" fill-rule="evenodd" sketch:type="MSPage">
        <g id="Payment" sketch:type="MSArtboardGroup" transform="translate(-194.000000, -388.000000)">
            <g id="field:-payment-info" sketch:type="MSLayerGroup" transform="translate(50.000000, 349.000000)">
                <g id="Cards" transform="translate(144.000000, 39.000000)" sketch:type="MSShapeGroup">
                    <g id="Card---Discover">
                        <path d="M41.2806608,24.6244025 C41.2806608,25.3843266 40.6648886,26.0000987 39.9049646,26.0000987 L1.37592658,26.0000987 C0.616002532,26.0000987 -9.87341772e-05,25.3843266 -9.87341772e-05,24.6244025 L-9.87341772e-05,1.57622532 C-9.87341772e-05,0.815643038 0.616002532,0.199870886 1.37592658,0.199870886 L39.9049646,0.199870886 C40.6648886,0.199870886 41.2806608,0.815643038 41.2806608,1.57622532 L41.2806608,24.6244025 Z" id="Fill-1" stroke="#89949B" stroke-width="0.5" fill="#FFFFFF"></path>
                        <path d="M39.4998575,25.6280638 C41,26 41,25 40.8249189,24.3026854 L40.8249189,15 C38.1855715,16.6730445 28.2350924,22.4413877 12,25.6280638 L39.4998575,25.6280638 Z" id="Fill-4" fill="#89949B"></path>
                        <path d="M21.3614813,11.6794689 C20.2661902,11.6794689 19.3778507,12.5348482 19.3778507,13.5908407 C19.3778507,14.7137043 20.2275254,15.5526035 21.3614813,15.5526035 C22.4672309,15.5526035 23.3400411,14.7026119 23.3400411,13.6127085 C23.3400411,12.5300943 22.4726187,11.6794689 21.3614813,11.6794689" id="Fill-6" fill="#89949B"></path>
                        <path d="M10.9478487,14.5429453 C10.7183953,14.7495801 10.4233386,14.8389528 9.9542903,14.8389528 L9.75906479,14.8389528 L9.75906479,12.3789847 L9.9542903,12.3789847 C10.4233386,12.3789847 10.706986,12.4626528 10.9478487,12.6797461 C11.1988529,12.9031779 11.3481243,13.2486256 11.3481243,13.6051657 C11.3481243,13.9629735 11.1988529,14.3207812 10.9478487,14.5429453 M10.0994417,11.7489388 L9.03330764,11.7489388 L9.03330764,15.4689988 L10.0943709,15.4689988 C10.656912,15.4689988 11.06416,15.3352566 11.4213339,15.039883 C11.8447451,14.6877798 12.0960662,14.157882 12.0960662,13.6108703 C12.0960662,12.5127269 11.2755486,11.7489388 10.0994417,11.7489388" id="Fill-8" fill="#89949B"></path>
                        <path d="M12.4311505,15.468872 L13.1562738,15.468872 L13.1562738,11.748812 L12.4311505,11.748812 L12.4311505,15.468872 Z" id="Fill-10" fill="#89949B"></path>
                        <path d="M14.9304489,13.1755745 C14.4946777,13.0145768 14.3669571,12.9080902 14.3669571,12.707477 C14.3669571,12.4735867 14.594192,12.2954751 14.9076304,12.2954751 C15.1250406,12.2954751 15.303786,12.3845309 15.4936238,12.5956026 L15.8726655,12.1002496 C15.560178,11.8261099 15.186524,11.68698 14.778959,11.68698 C14.1213406,11.68698 13.6190153,12.1443021 13.6190153,12.7521633 C13.6190153,13.265898 13.8535394,13.5276776 14.5339764,13.7729772 C14.8182577,13.8731254 14.9634091,13.9399964 15.0359848,13.9853166 C15.1811362,14.080394 15.2540289,14.2135023 15.2540289,14.3697461 C15.2540289,14.6717752 15.0138001,14.8939392 14.6895863,14.8939392 C14.3438217,14.8939392 14.065245,14.7218492 13.8979089,14.3979524 L13.4301283,14.8505206 C13.7638498,15.3408028 14.1657101,15.5588469 14.7184264,15.5588469 C15.4714391,15.5588469 16.00102,15.0562046 16.00102,14.3367859 C16.00102,13.7457217 15.7560373,13.4776036 14.9304489,13.1755745" id="Fill-12" fill="#89949B"></path>
                        <path d="M16.2293958,13.6107436 C16.2293958,14.7050839 17.0888951,15.5525401 18.1930601,15.5525401 C18.5058646,15.5525401 18.7733489,15.4913737 19.1029504,15.3351299 L19.1029504,14.4816521 C18.8120137,14.771955 18.5556218,14.8882663 18.2263372,14.8882663 C17.4958262,14.8882663 16.9767038,14.3583685 16.9767038,13.6050389 C16.9767038,12.8919587 17.5119893,12.32815 18.1930601,12.32815 C18.5385078,12.32815 18.8009213,12.4514337 19.1029504,12.7464904 L19.1029504,11.8930127 C18.7850751,11.7313812 18.5220278,11.6651439 18.210174,11.6651439 C17.1107629,11.6651439 16.2293958,12.5300309 16.2293958,13.6107436" id="Fill-13" fill="#89949B"></path>
                        <path d="M24.9816467,14.2476668 L23.9884053,11.7487169 L23.1964109,11.7487169 L24.7756458,15.5641712 L25.1657798,15.5641712 L26.7725872,11.7487169 L25.9862974,11.7487169 L24.9816467,14.2476668 Z" id="Fill-14" fill="#89949B"></path>
                        <path d="M27.102157,15.4689671 L29.1602648,15.4689671 L29.1602648,14.8389211 L27.8272803,14.8389211 L27.8272803,13.8342704 L29.1095569,13.8342704 L29.1095569,13.2045414 L27.8272803,13.2045414 L27.8272803,12.378953 L29.1602648,12.378953 L29.1602648,11.7489071 L27.102157,11.7489071 L27.102157,15.4689671 Z" id="Fill-15" fill="#89949B"></path>
                        <path d="M30.5760934,13.4609333 L30.3650217,13.4609333 L30.3650217,12.3336328 L30.5878196,12.3336328 C31.0403878,12.3336328 31.2860043,12.5244214 31.2860043,12.8860323 C31.2860043,13.2596863 31.0403878,13.4609333 30.5760934,13.4609333 M32.0323616,12.8470505 C32.0323616,12.1498166 31.5528548,11.7489071 30.716174,11.7489071 L29.6392645,11.7489071 L29.6392645,15.4689671 L30.3650217,15.4689671 L30.3650217,13.9740341 L30.4597821,13.9740341 L31.463482,15.4689671 L32.3559415,15.4689671 L31.1839546,13.9017753 C31.7312833,13.7902179 32.0323616,13.416247 32.0323616,12.8470505" id="Fill-16" fill="#89949B"></path>
                        <path id="Fill-17" fill="#89949B"></path>
                        <path d="M32.4355529,12.3232377 C32.3091,12.3232377 32.2064165,12.2192865 32.2064165,12.0893474 C32.2064165,11.9581406 32.3084662,11.8541894 32.4355529,11.8541894 C32.5594704,11.8541894 32.6608863,11.9600422 32.6608863,12.0893474 C32.6608863,12.2180188 32.5594704,12.3232377 32.4355529,12.3232377 M32.4358699,11.8018969 C32.2770907,11.8018969 32.1503209,11.9296174 32.1503209,12.0887135 C32.1503209,12.2471758 32.2777245,12.3745795 32.4358699,12.3745795 C32.5914798,12.3745795 32.7188835,12.2459081 32.7188835,12.0887135 C32.7188835,11.931519 32.5914798,11.8018969 32.4358699,11.8018969" id="Fill-18" fill="#89949B"></path>
                    </g>
                </g>
            </g>
        </g>
    </g>
</svg>